(export (version D)
  (design
    (source C:\WorkSpace\Projects\Private\OnOffPowerSwitcher\Hardware\OnOffPowerSwitcher.sch)
    (date "28/05/2018 11:26:01")
    (tool "Eeschema 4.0.7")
    (sheet (number 1) (name /) (tstamps /)
      (title_block
        (title)
        (company)
        (rev)
        (date)
        (source OnOffPowerSwitcher.sch)
        (comment (number 1) (value ""))
        (comment (number 2) (value ""))
        (comment (number 3) (value ""))
        (comment (number 4) (value "")))))
  (components
    (comp (ref U1)
      (value ATTINY13A-PU)
      (footprint Housings_DIP:DIP-8_W7.62mm)
      (fields
        (field (name Package) DIP8))
      (libsource (lib atmel) (part ATTINY13A-PU))
      (sheetpath (names /) (tstamps /))
      (tstamp 5B05A527))
    (comp (ref U2)
      (value LM7805_TO220)
      (footprint TO_SOT_Packages_THT:TO-220_Vertical)
      (libsource (lib regul) (part LM7805_TO220))
      (sheetpath (names /) (tstamps /))
      (tstamp 5B05A856))
    (comp (ref D1)
      (value 1N4007)
      (footprint Diodes_THT:D_5W_P10.16mm_Horizontal)
      (libsource (lib device) (part D))
      (sheetpath (names /) (tstamps /))
      (tstamp 5B05A8E1))
    (comp (ref C3)
      (value 100n)
      (footprint Capacitors_THT:C_Disc_D5.0mm_W2.5mm_P5.00mm)
      (libsource (lib SchematicLib) (part C))
      (sheetpath (names /) (tstamps /))
      (tstamp 5B05AA1F))
    (comp (ref C2)
      (value 22u)
      (footprint Capacitors_THT:CP_Radial_D5.0mm_P2.50mm)
      (libsource (lib device) (part CP))
      (sheetpath (names /) (tstamps /))
      (tstamp 5B05AA74))
    (comp (ref C4)
      (value 100n)
      (footprint Capacitors_THT:C_Disc_D5.0mm_W2.5mm_P5.00mm)
      (libsource (lib SchematicLib) (part C))
      (sheetpath (names /) (tstamps /))
      (tstamp 5B05AC78))
    (comp (ref C5)
      (value 22u)
      (footprint Capacitors_THT:CP_Radial_D5.0mm_P2.50mm)
      (libsource (lib device) (part CP))
      (sheetpath (names /) (tstamps /))
      (tstamp 5B05AC7E))
    (comp (ref Q2)
      (value IRFZ44N)
      (footprint TO_SOT_Packages_THT:TO-220_Vertical)
      (libsource (lib transistors) (part IRF3205))
      (sheetpath (names /) (tstamps /))
      (tstamp 5B05B4F5))
    (comp (ref R1)
      (value 4K7)
      (footprint Resistors_THT:R_Axial_DIN0207_L6.3mm_D2.5mm_P7.62mm_Horizontal)
      (libsource (lib SchematicLib) (part R))
      (sheetpath (names /) (tstamps /))
      (tstamp 5B05B9BC))
    (comp (ref J2)
      (value Prog)
      (footprint Connectors_JST:JST_EH_B05B-EH-A_05x2.50mm_Straight)
      (libsource (lib SchematicLib) (part Con_1x5))
      (sheetpath (names /) (tstamps /))
      (tstamp 5B05C54F))
    (comp (ref R3)
      (value 4K7)
      (footprint Resistors_THT:R_Axial_DIN0207_L6.3mm_D2.5mm_P7.62mm_Horizontal)
      (libsource (lib SchematicLib) (part R))
      (sheetpath (names /) (tstamps /))
      (tstamp 5B05C84E))
    (comp (ref Q1)
      (value BC327)
      (footprint TO_SOT_Packages_THT:TO-92_Molded_Narrow)
      (libsource (lib transistors) (part BC327))
      (sheetpath (names /) (tstamps /))
      (tstamp 5B05CE34))
    (comp (ref R4)
      (value 4K7)
      (footprint Resistors_THT:R_Axial_DIN0207_L6.3mm_D2.5mm_P7.62mm_Horizontal)
      (libsource (lib SchematicLib) (part R))
      (sheetpath (names /) (tstamps /))
      (tstamp 5B05D4B8))
    (comp (ref R2)
      (value 4K7)
      (footprint Resistors_THT:R_Axial_DIN0207_L6.3mm_D2.5mm_P7.62mm_Horizontal)
      (libsource (lib SchematicLib) (part R))
      (sheetpath (names /) (tstamps /))
      (tstamp 5B05D521))
    (comp (ref C1)
      (value 100n)
      (footprint Capacitors_THT:C_Disc_D5.0mm_W2.5mm_P5.00mm)
      (libsource (lib SchematicLib) (part C))
      (sheetpath (names /) (tstamps /))
      (tstamp 5B05ECF9))
    (comp (ref R5)
      (value 470)
      (footprint Resistors_THT:R_Axial_DIN0207_L6.3mm_D2.5mm_P7.62mm_Horizontal)
      (libsource (lib SchematicLib) (part R))
      (sheetpath (names /) (tstamps /))
      (tstamp 5B060398))
    (comp (ref D2)
      (value White)
      (footprint LEDs:LED_D5.0mm)
      (libsource (lib SchematicLib) (part LED))
      (sheetpath (names /) (tstamps /))
      (tstamp 5B060424))
    (comp (ref J3)
      (value Out)
      (footprint Connectors_TestPoints:Test_Point_Keystone_5010-5014_Multipurpose)
      (libsource (lib SchematicLib) (part Con_1x1))
      (sheetpath (names /) (tstamps /))
      (tstamp 5B095D34))
    (comp (ref R6)
      (value 10)
      (footprint Resistors_THT:R_Axial_DIN0207_L6.3mm_D2.5mm_P10.16mm_Horizontal)
      (libsource (lib SchematicLib) (part R))
      (sheetpath (names /) (tstamps /))
      (tstamp 5B0AA17E))
    (comp (ref J1)
      (value +12)
      (footprint Connectors_TestPoints:Test_Point_Keystone_5010-5014_Multipurpose)
      (libsource (lib SchematicLib) (part Con_1x1))
      (sheetpath (names /) (tstamps /))
      (tstamp 5B0BD612))
    (comp (ref J4)
      (value GND)
      (footprint Connectors_TestPoints:Test_Point_Keystone_5010-5014_Multipurpose)
      (libsource (lib SchematicLib) (part Con_1x1))
      (sheetpath (names /) (tstamps /))
      (tstamp 5B0BD7FA)))
  (libparts
    (libpart (lib atmel) (part ATTINY13-20PU)
      (aliases
        (alias ATTINY13A-PU))
      (description "PDIP8, 1k Flash, 64B SRAM, 64B EEPROM, Debug Wire")
      (docs http://www.atmel.com/Images/doc2535.pdf)
      (fields
        (field (name Reference) U)
        (field (name Value) ATTINY13-20PU)
        (field (name Footprint) Housings_DIP:DIP-8_W7.62mm))
      (pins
        (pin (num 1) (name "PB5(~RESET~/ADC0/PCINT5/dW)") (type BiDi))
        (pin (num 2) (name "PB3(CLKI/ADC3/PCINT3)") (type BiDi))
        (pin (num 3) (name "PB4(ADC2/PCINT4)") (type BiDi))
        (pin (num 4) (name GND) (type power_in))
        (pin (num 5) (name "PB0(MOSI/AIN0/OC0A/PCINT0)") (type BiDi))
        (pin (num 6) (name "PB1(MISO/AIN1/OC0B/INT0/PCINT1)") (type BiDi))
        (pin (num 7) (name "PB2(SCK/ADC1/T0/PCINT2)") (type BiDi))
        (pin (num 8) (name VCC) (type power_in))))
    (libpart (lib transistors) (part BC557)
      (aliases
        (alias BC556)
        (alias BC558)
        (alias BC559)
        (alias BC560)
        (alias BC327)
        (alias BC328))
      (description "45V Vce, 0.1A Ic, PNP Small Signal Transistor, TO-92")
      (docs http://www.fairchildsemi.com/ds/BC/BC557.pdf)
      (footprints
        (fp TO?92*))
      (fields
        (field (name Reference) Q)
        (field (name Value) BC557)
        (field (name Footprint) TO_SOT_Packages_THT:TO-92_Molded_Narrow))
      (pins
        (pin (num 1) (name C) (type passive))
        (pin (num 2) (name B) (type input))
        (pin (num 3) (name E) (type passive))))
    (libpart (lib transistors) (part BUZ11)
      (aliases
        (alias IRLZ44N)
        (alias IRLIZ44N)
        (alias IRLZ34N)
        (alias IRF3205)
        (alias IRF540N))
      (description "50V Vds, 30A Id, N-Channel Power MOSFET, TO-220")
      (docs http://www.fairchildsemi.com/ds/BU/BUZ11.pdf)
      (footprints
        (fp TO?220*))
      (fields
        (field (name Reference) Q)
        (field (name Value) BUZ11)
        (field (name Footprint) TO_SOT_Packages_THT:TO-220_Vertical))
      (pins
        (pin (num 1) (name G) (type input))
        (pin (num 2) (name D) (type passive))
        (pin (num 3) (name S) (type passive))))
    (libpart (lib SchematicLib) (part C)
      (description "Unpolarized capacitor")
      (footprints
        (fp C_*))
      (fields
        (field (name Reference) C)
        (field (name Value) C))
      (pins
        (pin (num 1) (name ~) (type passive))
        (pin (num 2) (name ~) (type passive))))
    (libpart (lib device) (part CP)
      (description "Polarised capacitor")
      (footprints
        (fp CP_*))
      (fields
        (field (name Reference) C)
        (field (name Value) CP))
      (pins
        (pin (num 1) (name ~) (type passive))
        (pin (num 2) (name ~) (type passive))))
    (libpart (lib SchematicLib) (part Con_1x1)
      (description "Generic connector, single row, 01x01")
      (docs ~)
      (footprints
        (fp Connector*:*_??x*mm*)
        (fp Connector*:*1x??x*mm*)
        (fp Pin?Header?Straight?1X*)
        (fp Pin?Header?Angled?1X*)
        (fp Socket?Strip?Straight?1X*)
        (fp Socket?Strip?Angled?1X*))
      (fields
        (field (name Reference) J)
        (field (name Value) Con_1x1))
      (pins
        (pin (num 1) (name Pin_1) (type passive))))
    (libpart (lib SchematicLib) (part Con_1x5)
      (description "Generic connector, single row, 01x05")
      (docs ~)
      (fields
        (field (name Reference) J)
        (field (name Value) Con_1x5))
      (pins
        (pin (num 1) (name Pin_1) (type passive))
        (pin (num 2) (name Pin_2) (type passive))
        (pin (num 3) (name Pin_3) (type passive))
        (pin (num 4) (name Pin_4) (type passive))
        (pin (num 5) (name Pin_5) (type passive))))
    (libpart (lib device) (part D)
      (description Diode)
      (footprints
        (fp TO-???*)
        (fp *SingleDiode)
        (fp *_Diode_*)
        (fp *SingleDiode*)
        (fp D_*))
      (fields
        (field (name Reference) D)
        (field (name Value) D))
      (pins
        (pin (num 1) (name K) (type passive))
        (pin (num 2) (name A) (type passive))))
    (libpart (lib SchematicLib) (part LED)
      (description "LED generic")
      (footprints
        (fp LED*))
      (fields
        (field (name Reference) D)
        (field (name Value) LED))
      (pins
        (pin (num 1) (name K) (type passive))
        (pin (num 2) (name A) (type passive))))
    (libpart (lib regul) (part LM7805_TO220)
      (aliases
        (alias LM7806_TO220)
        (alias LM7808_TO220)
        (alias LM7809_TO220)
        (alias LM7810_TO220)
        (alias LM7812_TO220)
        (alias LM7815_TO220)
        (alias LM7818_TO220)
        (alias LM7824_TO220)
        (alias LM78M05_TO220)
        (alias SPX2920U-3.3_TO220)
        (alias SPX2920U-5.0_TO220)
        (alias LF15_TO220)
        (alias LF18_TO220)
        (alias LF25_TO220)
        (alias LF33_TO220)
        (alias LF50_TO220)
        (alias LF60_TO220)
        (alias LF80_TO220)
        (alias LF85_TO220)
        (alias LF120_TO220)
        (alias LF47_TO220)
        (alias LF90_TO220)
        (alias LM341T-05_TO220)
        (alias LM341T-12_TO220)
        (alias LM341T-15_TO220))
      (description "Positive 1A 35V Linear Regulator, Fixed Output 5V, TO-220")
      (docs http://www.fairchildsemi.com/ds/LM/LM7805.pdf)
      (footprints
        (fp TO?220*))
      (fields
        (field (name Reference) U)
        (field (name Value) LM7805_TO220)
        (field (name Footprint) TO_SOT_Packages_THT:TO-220_Vertical))
      (pins
        (pin (num 1) (name VI) (type power_in))
        (pin (num 2) (name GND) (type power_in))
        (pin (num 3) (name VO) (type power_out))))
    (libpart (lib SchematicLib) (part R)
      (description Resistor)
      (footprints
        (fp R_*)
        (fp R_*))
      (fields
        (field (name Reference) R)
        (field (name Value) R))
      (pins
        (pin (num 1) (name ~) (type passive))
        (pin (num 2) (name ~) (type passive)))))
  (libraries
    (library (logical SchematicLib)
      (uri C:\WorkSpace\Projects\Private\OnOffPowerSwitcher\Hardware\Kicad-Lib\SchematicLib.lib))
    (library (logical device)
      (uri C:\Programy\KiCad\share\kicad\library\device.lib))
    (library (logical transistors)
      (uri C:\Programy\KiCad\share\kicad\library\transistors.lib))
    (library (logical regul)
      (uri C:\Programy\KiCad\share\kicad\library\regul.lib))
    (library (logical atmel)
      (uri C:\Programy\KiCad\share\kicad\library\atmel.lib)))
  (nets
    (net (code 1) (name +5V)
      (node (ref C1) (pin 1))
      (node (ref R5) (pin 1))
      (node (ref Q1) (pin 3))
      (node (ref U1) (pin 8))
      (node (ref R1) (pin 1))
      (node (ref U2) (pin 3))
      (node (ref C5) (pin 1))
      (node (ref C4) (pin 1))
      (node (ref R3) (pin 1)))
    (net (code 2) (name RST)
      (node (ref R3) (pin 2))
      (node (ref U1) (pin 1))
      (node (ref J2) (pin 1)))
    (net (code 3) (name SCK)
      (node (ref U1) (pin 7))
      (node (ref J2) (pin 2)))
    (net (code 4) (name MISO)
      (node (ref U1) (pin 6))
      (node (ref J2) (pin 3)))
    (net (code 5) (name MOSI)
      (node (ref U1) (pin 5))
      (node (ref J2) (pin 4)))
    (net (code 6) (name "Net-(Q1-Pad1)")
      (node (ref Q2) (pin 1))
      (node (ref R4) (pin 1))
      (node (ref Q1) (pin 1)))
    (net (code 7) (name "Net-(R6-Pad2)")
      (node (ref U1) (pin 2))
      (node (ref R6) (pin 2)))
    (net (code 8) (name "Net-(D2-Pad2)")
      (node (ref R5) (pin 2))
      (node (ref D2) (pin 2)))
    (net (code 9) (name "Net-(D2-Pad1)")
      (node (ref J3) (pin 1))
      (node (ref Q2) (pin 2))
      (node (ref D2) (pin 1)))
    (net (code 10) (name Control)
      (node (ref R1) (pin 2))
      (node (ref R6) (pin 1))
      (node (ref R2) (pin 2)))
    (net (code 11) (name "Net-(Q1-Pad2)")
      (node (ref R2) (pin 1))
      (node (ref Q1) (pin 2)))
    (net (code 12) (name GND)
      (node (ref Q2) (pin 3))
      (node (ref C4) (pin 2))
      (node (ref C5) (pin 2))
      (node (ref C1) (pin 2))
      (node (ref R4) (pin 2))
      (node (ref U1) (pin 4))
      (node (ref J4) (pin 1))
      (node (ref U2) (pin 2))
      (node (ref J2) (pin 5))
      (node (ref C3) (pin 2))
      (node (ref C2) (pin 2)))
    (net (code 13) (name +12V)
      (node (ref J1) (pin 1))
      (node (ref D1) (pin 2)))
    (net (code 14) (name "Net-(C2-Pad1)")
      (node (ref U2) (pin 1))
      (node (ref D1) (pin 1))
      (node (ref C3) (pin 1))
      (node (ref C2) (pin 1)))
    (net (code 15) (name "Net-(U1-Pad3)")
      (node (ref U1) (pin 3)))))