EESchema Schematic File Version 2
LIBS:SchematicLib
LIBS:power
LIBS:device
LIBS:switches
LIBS:relays
LIBS:motors
LIBS:transistors
LIBS:conn
LIBS:linear
LIBS:regul
LIBS:74xx
LIBS:cmos4000
LIBS:adc-dac
LIBS:memory
LIBS:xilinx
LIBS:microcontrollers
LIBS:dsp
LIBS:microchip
LIBS:analog_switches
LIBS:motorola
LIBS:texas
LIBS:intel
LIBS:audio
LIBS:interface
LIBS:digital-audio
LIBS:philips
LIBS:display
LIBS:cypress
LIBS:siliconi
LIBS:opto
LIBS:atmel
LIBS:contrib
LIBS:valves
LIBS:OnOffPowerSwitcher-cache
EELAYER 25 0
EELAYER END
$Descr A4 11693 8268
encoding utf-8
Sheet 1 1
Title ""
Date ""
Rev ""
Comp ""
Comment1 ""
Comment2 ""
Comment3 ""
Comment4 ""
$EndDescr
$Comp
L ATTINY13A-PU U1
U 1 1 5B05A527
P 4500 4800
F 0 "U1" H 3700 5200 50  0000 C CNN
F 1 "ATTINY13A-PU" H 5050 5200 50  0000 C CNN
F 2 "Housings_DIP:DIP-8_W7.62mm" H 5150 4800 50  0001 C CIN
F 3 "" H 3700 5150 50  0001 C CNN
F 4 "DIP8" H 4500 4400 50  0000 C CNN "Package"
	1    4500 4800
	-1   0    0    -1  
$EndComp
$Comp
L LM7805_TO220 U2
U 1 1 5B05A856
P 5000 2400
F 0 "U2" H 4850 2525 50  0000 C CNN
F 1 "LM7805_TO220" H 5000 2525 50  0000 L CNN
F 2 "TO_SOT_Packages_THT:TO-220_Vertical" H 5000 2625 50  0001 C CIN
F 3 "" H 5000 2350 50  0001 C CNN
	1    5000 2400
	1    0    0    -1  
$EndComp
$Comp
L D D1
U 1 1 5B05A8E1
P 4050 2400
F 0 "D1" H 4050 2500 50  0000 C CNN
F 1 "1N4007" H 4050 2300 50  0000 C CNN
F 2 "Diodes_THT:D_5W_P10.16mm_Horizontal" H 4050 2400 50  0001 C CNN
F 3 "" H 4050 2400 50  0001 C CNN
	1    4050 2400
	-1   0    0    1   
$EndComp
$Comp
L C C3
U 1 1 5B05AA1F
P 4600 2600
F 0 "C3" H 4625 2700 50  0000 L CNN
F 1 "100n" H 4625 2500 50  0000 L CNN
F 2 "Capacitors_THT:C_Disc_D5.0mm_W2.5mm_P5.00mm" H 4638 2450 50  0001 C CNN
F 3 "" H 4600 2600 50  0001 C CNN
	1    4600 2600
	1    0    0    -1  
$EndComp
$Comp
L CP C2
U 1 1 5B05AA74
P 4300 2600
F 0 "C2" H 4325 2700 50  0000 L CNN
F 1 "22u" H 4325 2500 50  0000 L CNN
F 2 "Capacitors_THT:CP_Radial_D5.0mm_P2.50mm" H 4338 2450 50  0001 C CNN
F 3 "" H 4300 2600 50  0001 C CNN
	1    4300 2600
	1    0    0    -1  
$EndComp
$Comp
L GND #PWR01
U 1 1 5B05AB2A
P 3800 2850
F 0 "#PWR01" H 3800 2600 50  0001 C CNN
F 1 "GND" H 3800 2700 50  0000 C CNN
F 2 "" H 3800 2850 50  0001 C CNN
F 3 "" H 3800 2850 50  0001 C CNN
	1    3800 2850
	1    0    0    -1  
$EndComp
$Comp
L GND #PWR02
U 1 1 5B05AB51
P 4300 2850
F 0 "#PWR02" H 4300 2600 50  0001 C CNN
F 1 "GND" H 4300 2700 50  0000 C CNN
F 2 "" H 4300 2850 50  0001 C CNN
F 3 "" H 4300 2850 50  0001 C CNN
	1    4300 2850
	1    0    0    -1  
$EndComp
$Comp
L GND #PWR03
U 1 1 5B05AB71
P 4600 2850
F 0 "#PWR03" H 4600 2600 50  0001 C CNN
F 1 "GND" H 4600 2700 50  0000 C CNN
F 2 "" H 4600 2850 50  0001 C CNN
F 3 "" H 4600 2850 50  0001 C CNN
	1    4600 2850
	1    0    0    -1  
$EndComp
$Comp
L GND #PWR04
U 1 1 5B05AB91
P 5000 2850
F 0 "#PWR04" H 5000 2600 50  0001 C CNN
F 1 "GND" H 5000 2700 50  0000 C CNN
F 2 "" H 5000 2850 50  0001 C CNN
F 3 "" H 5000 2850 50  0001 C CNN
	1    5000 2850
	1    0    0    -1  
$EndComp
$Comp
L C C4
U 1 1 5B05AC78
P 5400 2600
F 0 "C4" H 5425 2700 50  0000 L CNN
F 1 "100n" H 5425 2500 50  0000 L CNN
F 2 "Capacitors_THT:C_Disc_D5.0mm_W2.5mm_P5.00mm" H 5438 2450 50  0001 C CNN
F 3 "" H 5400 2600 50  0001 C CNN
	1    5400 2600
	1    0    0    -1  
$EndComp
$Comp
L CP C5
U 1 1 5B05AC7E
P 5700 2600
F 0 "C5" H 5725 2700 50  0000 L CNN
F 1 "22u" H 5725 2500 50  0000 L CNN
F 2 "Capacitors_THT:CP_Radial_D5.0mm_P2.50mm" H 5738 2450 50  0001 C CNN
F 3 "" H 5700 2600 50  0001 C CNN
	1    5700 2600
	1    0    0    -1  
$EndComp
$Comp
L GND #PWR05
U 1 1 5B05AC84
P 5400 2850
F 0 "#PWR05" H 5400 2600 50  0001 C CNN
F 1 "GND" H 5400 2700 50  0000 C CNN
F 2 "" H 5400 2850 50  0001 C CNN
F 3 "" H 5400 2850 50  0001 C CNN
	1    5400 2850
	1    0    0    -1  
$EndComp
$Comp
L GND #PWR06
U 1 1 5B05AC8A
P 5700 2850
F 0 "#PWR06" H 5700 2600 50  0001 C CNN
F 1 "GND" H 5700 2700 50  0000 C CNN
F 2 "" H 5700 2850 50  0001 C CNN
F 3 "" H 5700 2850 50  0001 C CNN
	1    5700 2850
	1    0    0    -1  
$EndComp
Wire Wire Line
	3800 2250 3800 2400
Wire Wire Line
	3650 2400 3900 2400
Wire Wire Line
	4200 2400 4700 2400
Wire Wire Line
	4300 2400 4300 2450
Wire Wire Line
	4600 2400 4600 2450
Connection ~ 4300 2400
Connection ~ 4600 2400
Wire Wire Line
	3800 2750 3800 2850
Wire Wire Line
	3650 2750 3800 2750
Wire Wire Line
	4300 2850 4300 2750
Wire Wire Line
	4600 2850 4600 2750
Wire Wire Line
	5000 2850 5000 2700
Wire Wire Line
	5400 2850 5400 2750
Wire Wire Line
	5700 2850 5700 2750
Wire Wire Line
	5300 2400 5700 2400
Wire Wire Line
	5700 2250 5700 2450
Wire Wire Line
	5400 2400 5400 2450
Connection ~ 5400 2400
$Comp
L +5V #PWR07
U 1 1 5B05AD6B
P 5700 2250
F 0 "#PWR07" H 5700 2100 50  0001 C CNN
F 1 "+5V" H 5700 2390 50  0000 C CNN
F 2 "" H 5700 2250 50  0001 C CNN
F 3 "" H 5700 2250 50  0001 C CNN
	1    5700 2250
	1    0    0    -1  
$EndComp
Connection ~ 5700 2400
$Comp
L +12V #PWR08
U 1 1 5B05B14A
P 3800 2250
F 0 "#PWR08" H 3800 2100 50  0001 C CNN
F 1 "+12V" H 3800 2390 50  0000 C CNN
F 2 "" H 3800 2250 50  0001 C CNN
F 3 "" H 3800 2250 50  0001 C CNN
	1    3800 2250
	1    0    0    -1  
$EndComp
Connection ~ 3800 2400
$Comp
L IRF3205 Q2
U 1 1 5B05B4F5
P 8250 3250
F 0 "Q2" H 8500 3325 50  0000 L CNN
F 1 "IRFZ44N" H 8500 3250 50  0000 L CNN
F 2 "TO_SOT_Packages_THT:TO-220_Vertical" H 8500 3175 50  0001 L CIN
F 3 "" H 8250 3250 50  0001 L CNN
	1    8250 3250
	1    0    0    -1  
$EndComp
$Comp
L GND #PWR09
U 1 1 5B05B8B4
P 8350 3700
F 0 "#PWR09" H 8350 3450 50  0001 C CNN
F 1 "GND" H 8350 3550 50  0000 C CNN
F 2 "" H 8350 3700 50  0001 C CNN
F 3 "" H 8350 3700 50  0001 C CNN
	1    8350 3700
	1    0    0    -1  
$EndComp
Wire Wire Line
	8350 3700 8350 3450
$Comp
L R R1
U 1 1 5B05B9BC
P 7150 2550
F 0 "R1" V 7230 2550 50  0000 C CNN
F 1 "4K7" V 7150 2550 50  0000 C CNN
F 2 "Resistors_THT:R_Axial_DIN0207_L6.3mm_D2.5mm_P7.62mm_Horizontal" V 7080 2550 50  0001 C CNN
F 3 "" H 7150 2550 50  0001 C CNN
	1    7150 2550
	1    0    0    -1  
$EndComp
Wire Wire Line
	7900 2950 7900 3300
Wire Wire Line
	7900 3250 8050 3250
$Comp
L GND #PWR010
U 1 1 5B05BA65
P 7900 3700
F 0 "#PWR010" H 7900 3450 50  0001 C CNN
F 1 "GND" H 7900 3550 50  0000 C CNN
F 2 "" H 7900 3700 50  0001 C CNN
F 3 "" H 7900 3700 50  0001 C CNN
	1    7900 3700
	1    0    0    -1  
$EndComp
Wire Wire Line
	7900 3700 7900 3600
$Comp
L GND #PWR011
U 1 1 5B05C1DC
P 7550 5200
F 0 "#PWR011" H 7550 4950 50  0001 C CNN
F 1 "GND" H 7550 5050 50  0000 C CNN
F 2 "" H 7550 5200 50  0001 C CNN
F 3 "" H 7550 5200 50  0001 C CNN
	1    7550 5200
	1    0    0    -1  
$EndComp
Wire Wire Line
	7550 5200 7550 5100
Wire Wire Line
	7550 5100 7700 5100
Wire Wire Line
	7700 5000 7550 5000
Wire Wire Line
	7700 4900 7550 4900
Wire Wire Line
	7700 4800 7550 4800
Text GLabel 7550 5000 0    50   Input ~ 0
MOSI
Text GLabel 7550 4900 0    50   Input ~ 0
MISO
Text GLabel 7550 4800 0    50   Input ~ 0
SCK
$Comp
L Con_1x5 J2
U 1 1 5B05C54F
P 7850 4850
F 0 "J2" H 7900 5100 50  0000 C CNN
F 1 "Prog" H 7900 4500 50  0000 C CNN
F 2 "Connectors_JST:JST_EH_B05B-EH-A_05x2.50mm_Straight" H 7900 4900 50  0001 C CNN
F 3 "" H 7900 4900 50  0001 C CNN
	1    7850 4850
	1    0    0    -1  
$EndComp
Wire Wire Line
	7550 4700 7700 4700
Text GLabel 7550 4700 0    50   Input ~ 0
RST
Wire Wire Line
	5500 5050 5650 5050
Wire Wire Line
	5500 4550 5650 4550
Wire Wire Line
	5500 4650 5650 4650
Wire Wire Line
	5500 4750 5650 4750
Text GLabel 5650 5050 2    50   Input ~ 0
RST
Text GLabel 5650 4550 2    50   Input ~ 0
MOSI
Text GLabel 5650 4650 2    50   Input ~ 0
MISO
Text GLabel 5650 4750 2    50   Input ~ 0
SCK
$Comp
L R R3
U 1 1 5B05C84E
P 7600 4500
F 0 "R3" V 7680 4500 50  0000 C CNN
F 1 "4K7" V 7600 4500 50  0000 C CNN
F 2 "Resistors_THT:R_Axial_DIN0207_L6.3mm_D2.5mm_P7.62mm_Horizontal" V 7530 4500 50  0001 C CNN
F 3 "" H 7600 4500 50  0001 C CNN
	1    7600 4500
	1    0    0    -1  
$EndComp
$Comp
L +5V #PWR012
U 1 1 5B05C9BC
P 7600 4250
F 0 "#PWR012" H 7600 4100 50  0001 C CNN
F 1 "+5V" H 7600 4390 50  0000 C CNN
F 2 "" H 7600 4250 50  0001 C CNN
F 3 "" H 7600 4250 50  0001 C CNN
	1    7600 4250
	1    0    0    -1  
$EndComp
Wire Wire Line
	7600 4250 7600 4350
Wire Wire Line
	7600 4650 7600 4700
Connection ~ 7600 4700
$Comp
L BC327 Q1
U 1 1 5B05CE34
P 7800 2750
F 0 "Q1" H 8000 2700 50  0000 L CNN
F 1 "BC327" V 8050 2800 50  0000 L CNN
F 2 "TO_SOT_Packages_THT:TO-92_Molded_Narrow" H 8000 2675 50  0001 L CIN
F 3 "" H 7800 2750 50  0001 L CNN
	1    7800 2750
	1    0    0    1   
$EndComp
Connection ~ 7900 3250
Wire Wire Line
	7900 2550 7900 2250
$Comp
L +5V #PWR013
U 1 1 5B05D077
P 7900 2250
F 0 "#PWR013" H 7900 2100 50  0001 C CNN
F 1 "+5V" H 7900 2390 50  0000 C CNN
F 2 "" H 7900 2250 50  0001 C CNN
F 3 "" H 7900 2250 50  0001 C CNN
	1    7900 2250
	1    0    0    -1  
$EndComp
Wire Wire Line
	7150 2700 7150 2750
Wire Wire Line
	7050 2750 7250 2750
$Comp
L +5V #PWR014
U 1 1 5B05D371
P 7150 2250
F 0 "#PWR014" H 7150 2100 50  0001 C CNN
F 1 "+5V" H 7150 2390 50  0000 C CNN
F 2 "" H 7150 2250 50  0001 C CNN
F 3 "" H 7150 2250 50  0001 C CNN
	1    7150 2250
	1    0    0    -1  
$EndComp
Wire Wire Line
	7150 2400 7150 2250
$Comp
L R R4
U 1 1 5B05D4B8
P 7900 3450
F 0 "R4" V 7980 3450 50  0000 C CNN
F 1 "4K7" V 7900 3450 50  0000 C CNN
F 2 "Resistors_THT:R_Axial_DIN0207_L6.3mm_D2.5mm_P7.62mm_Horizontal" V 7830 3450 50  0001 C CNN
F 3 "" H 7900 3450 50  0001 C CNN
	1    7900 3450
	1    0    0    -1  
$EndComp
$Comp
L R R2
U 1 1 5B05D521
P 7400 2750
F 0 "R2" V 7480 2750 50  0000 C CNN
F 1 "4K7" V 7400 2750 50  0000 C CNN
F 2 "Resistors_THT:R_Axial_DIN0207_L6.3mm_D2.5mm_P7.62mm_Horizontal" V 7330 2750 50  0001 C CNN
F 3 "" H 7400 2750 50  0001 C CNN
	1    7400 2750
	0    1    1    0   
$EndComp
Wire Wire Line
	7550 2750 7600 2750
Connection ~ 7150 2750
Text GLabel 7050 2750 0    50   Input ~ 0
Control
$Comp
L C C1
U 1 1 5B05ECF9
P 3400 4800
F 0 "C1" H 3425 4900 50  0000 L CNN
F 1 "100n" H 3425 4700 50  0000 L CNN
F 2 "Capacitors_THT:C_Disc_D5.0mm_W2.5mm_P5.00mm" H 3438 4650 50  0001 C CNN
F 3 "" H 3400 4800 50  0001 C CNN
	1    3400 4800
	1    0    0    -1  
$EndComp
$Comp
L GND #PWR015
U 1 1 5B05EE7A
P 3400 5100
F 0 "#PWR015" H 3400 4850 50  0001 C CNN
F 1 "GND" H 3400 4950 50  0000 C CNN
F 2 "" H 3400 5100 50  0001 C CNN
F 3 "" H 3400 5100 50  0001 C CNN
	1    3400 5100
	1    0    0    -1  
$EndComp
$Comp
L +5V #PWR016
U 1 1 5B05EF40
P 3400 4500
F 0 "#PWR016" H 3400 4350 50  0001 C CNN
F 1 "+5V" H 3400 4640 50  0000 C CNN
F 2 "" H 3400 4500 50  0001 C CNN
F 3 "" H 3400 4500 50  0001 C CNN
	1    3400 4500
	1    0    0    -1  
$EndComp
Wire Wire Line
	3500 4550 3400 4550
Wire Wire Line
	3400 4500 3400 4650
Connection ~ 3400 4550
Wire Wire Line
	3400 4950 3400 5100
Wire Wire Line
	3400 5050 3500 5050
Connection ~ 3400 5050
Text GLabel 6050 4850 2    50   Input ~ 0
Control
Wire Wire Line
	5650 4850 5500 4850
$Comp
L R R5
U 1 1 5B060398
P 8350 2450
F 0 "R5" V 8430 2450 50  0000 C CNN
F 1 "470" V 8350 2450 50  0000 C CNN
F 2 "Resistors_THT:R_Axial_DIN0207_L6.3mm_D2.5mm_P7.62mm_Horizontal" V 8280 2450 50  0001 C CNN
F 3 "" H 8350 2450 50  0001 C CNN
	1    8350 2450
	1    0    0    -1  
$EndComp
$Comp
L LED D2
U 1 1 5B060424
P 8350 2800
F 0 "D2" H 8350 2900 50  0000 C CNN
F 1 "White" H 8350 2700 50  0000 C CNN
F 2 "LEDs:LED_D5.0mm" H 8350 2800 50  0001 C CNN
F 3 "" H 8350 2800 50  0001 C CNN
	1    8350 2800
	0    -1   -1   0   
$EndComp
$Comp
L +5V #PWR017
U 1 1 5B0611BE
P 8350 2250
F 0 "#PWR017" H 8350 2100 50  0001 C CNN
F 1 "+5V" H 8350 2390 50  0000 C CNN
F 2 "" H 8350 2250 50  0001 C CNN
F 3 "" H 8350 2250 50  0001 C CNN
	1    8350 2250
	1    0    0    -1  
$EndComp
Wire Wire Line
	8350 2250 8350 2300
Wire Wire Line
	8350 2650 8350 2600
Wire Wire Line
	8350 2950 8350 3050
Connection ~ 8350 3000
Wire Wire Line
	8350 3000 8700 3000
$Comp
L Con_1x1 J3
U 1 1 5B095D34
P 8900 3000
F 0 "J3" H 8900 3100 50  0000 C CNN
F 1 "Out" H 8900 2900 50  0000 C CNN
F 2 "Connectors_TestPoints:Test_Point_Keystone_5010-5014_Multipurpose" H 8900 3000 50  0001 C CNN
F 3 "" H 8900 3000 50  0001 C CNN
	1    8900 3000
	1    0    0    -1  
$EndComp
$Comp
L R R6
U 1 1 5B0AA17E
P 5800 4850
F 0 "R6" V 5880 4850 50  0000 C CNN
F 1 "10" V 5800 4850 50  0000 C CNN
F 2 "Resistors_THT:R_Axial_DIN0207_L6.3mm_D2.5mm_P10.16mm_Horizontal" V 5730 4850 50  0001 C CNN
F 3 "" H 5800 4850 50  0001 C CNN
	1    5800 4850
	0    1    1    0   
$EndComp
Wire Wire Line
	5950 4850 6050 4850
$Comp
L Con_1x1 J1
U 1 1 5B0BD612
P 3450 2400
F 0 "J1" H 3450 2500 50  0000 C CNN
F 1 "+12" H 3450 2300 50  0000 C CNN
F 2 "Connectors_TestPoints:Test_Point_Keystone_5010-5014_Multipurpose" H 3450 2400 50  0001 C CNN
F 3 "" H 3450 2400 50  0001 C CNN
	1    3450 2400
	-1   0    0    1   
$EndComp
$Comp
L Con_1x1 J4
U 1 1 5B0BD7FA
P 3450 2750
F 0 "J4" H 3450 2850 50  0000 C CNN
F 1 "GND" H 3450 2650 50  0000 C CNN
F 2 "Connectors_TestPoints:Test_Point_Keystone_5010-5014_Multipurpose" H 3450 2750 50  0001 C CNN
F 3 "" H 3450 2750 50  0001 C CNN
	1    3450 2750
	-1   0    0    1   
$EndComp
$EndSCHEMATC
